<!-- Generated by IcoMoon.io -->
<svg version="1.1" xmlns="http://www.w3.org/2000/svg" width="1024" height="1024" viewBox="0 0 1024 1024">
<title></title>
<g id="icomoon-ignore">
</g>
<path d="M211.6 49.48v292.24c0 113.365 32.945 225.797 88 313.52 56.148 89.46 130.284 145.2 212.4 145.2s156.249-55.741 212.4-145.2c55.053-87.722 88-200.154 88-313.52v-292.24zM334.48 172.36h355.040v169.36c0 88.605-28.144 182.82-69.2 248.24-42.259 67.327-85.53 87.6-108.32 87.6s-66.063-20.273-108.32-87.6c-41.056-65.418-69.2-159.635-69.2-248.24z"></path>
<path d="M765.44 107.48v122.88h130.56c-6.096 89.78-24.294 165.363-52.32 212.88-33.247 56.369-69.476 77.28-106.4 77.28v122.88c87.492 0 163.951-55.889 212.24-137.76s74.48-191.755 74.48-323.039v-75.12z"></path>
<path d="M0 110.921v74.96c0 131.11 28.959 241.373 81.84 322.88s134.51 134.64 225.36 134.64v-122.88c-44.879 0-86.174-23.050-122.24-78.64-30.285-46.678-49.82-120.364-56.48-208.080h148v-122.88z"></path>
<path d="M450.56 762.84v88.8h-88.72v122.88h300.32v-122.88h-88.72v-88.8z"></path>
</svg>
