<svg width="20" height="18" viewBox="0 0 20 18" fill="none" xmlns="http://www.w3.org/2000/svg">
<path d="M14.0435 0C11.7304 0 10.3261 1.10145 9.91304 1.65217C9.22464 1.10145 8.09565 0 5.78261 0C2.8913 0 0 2.47826 0 5.78261C0 9.08696 2.47826 11.5652 4.13043 13.2174C5.45217 14.5391 8.53623 16.5217 9.91304 17.3478C11.1522 16.5217 14.0435 14.5391 15.6957 13.2174C17.7609 11.5652 19.8261 8.67391 19.8261 5.78261C19.8261 2.8913 16.9348 0 14.0435 0Z" fill="#00EE32"/>
</svg>
